module github.com/RafalSalwa/interview-app-srv

go 1.21

require (
	github.com/fatih/color v1.16.0
	github.com/go-kit/log v0.2.0
	github.com/go-playground/validator/v10 v10.18.0
	github.com/go-redis/redis/v8 v8.11.3
	github.com/golang-jwt/jwt v3.2.2+incompatible
	github.com/golang/protobuf v1.5.3
	github.com/google/uuid v1.3.0
	github.com/gorilla/mux v1.8.0
	github.com/grpc-ecosystem/go-grpc-middleware v1.4.0
	github.com/grpc-ecosystem/go-grpc-middleware/providers/prometheus v1.0.0-rc.0
	github.com/grpc-ecosystem/go-grpc-middleware/v2 v2.0.1
	github.com/grpc-ecosystem/go-grpc-prometheus v1.2.0
	github.com/jinzhu/copier v0.3.5
	github.com/mitchellh/mapstructure v1.5.0
	github.com/newrelic/go-agent/v3 v3.21.1
	github.com/pkg/errors v0.9.1
	github.com/pkg/profile v1.7.0
	github.com/prometheus/client_golang v1.14.0
	github.com/rabbitmq/amqp091-go v1.8.1
	github.com/rs/zerolog v1.29.1
	github.com/sirupsen/logrus v1.6.0
	github.com/spf13/viper v1.16.0
	github.com/stretchr/testify v1.8.4
	github.com/swaggo/http-swagger/v2 v2.0.1
	github.com/swaggo/swag v1.16.1
	github.com/wagslane/go-password-validator v0.3.0
	github.com/xhit/go-simple-mail/v2 v2.13.0
	go.mongodb.org/mongo-driver v1.11.7
	go.opentelemetry.io/contrib/instrumentation/google.golang.org/grpc/otelgrpc v0.42.0
	go.opentelemetry.io/contrib/instrumentation/net/http/otelhttp v0.44.0
	go.opentelemetry.io/otel v1.18.0
	go.opentelemetry.io/otel/exporters/jaeger v1.16.0
	go.opentelemetry.io/otel/exporters/otlp/otlptrace v1.18.0
	go.opentelemetry.io/otel/exporters/otlp/otlptrace/otlptracegrpc v1.18.0
	go.opentelemetry.io/otel/sdk v1.18.0
	go.opentelemetry.io/otel/trace v1.18.0
	golang.org/x/crypto v0.21.0
	google.golang.org/grpc v1.58.2
	google.golang.org/protobuf v1.33.0
	gorm.io/driver/mysql v1.5.1
	gorm.io/gen v0.3.22
	gorm.io/gorm v1.25.1
	gorm.io/plugin/dbresolver v1.4.1
)

require (
	github.com/KyleBanks/depth v1.2.1 // indirect
	github.com/beorn7/perks v1.0.1 // indirect
	github.com/cenkalti/backoff/v4 v4.2.1 // indirect
	github.com/cespare/xxhash/v2 v2.2.0 // indirect
	github.com/davecgh/go-spew v1.1.1 // indirect
	github.com/dgryski/go-rendezvous v0.0.0-20200823014737-9f7001d12a5f // indirect
	github.com/felixge/fgprof v0.9.3 // indirect
	github.com/felixge/httpsnoop v1.0.3 // indirect
	github.com/fsnotify/fsnotify v1.6.0 // indirect
	github.com/gabriel-vasile/mimetype v1.4.3 // indirect
	github.com/go-logfmt/logfmt v0.5.1 // indirect
	github.com/go-logr/logr v1.2.4 // indirect
	github.com/go-logr/stdr v1.2.2 // indirect
	github.com/go-openapi/jsonpointer v0.19.5 // indirect
	github.com/go-openapi/jsonreference v0.20.0 // indirect
	github.com/go-openapi/spec v0.20.6 // indirect
	github.com/go-openapi/swag v0.19.15 // indirect
	github.com/go-playground/locales v0.14.1 // indirect
	github.com/go-playground/universal-translator v0.18.1 // indirect
	github.com/go-sql-driver/mysql v1.7.1 // indirect
	github.com/go-test/deep v1.1.0 // indirect
	github.com/golang/snappy v0.0.1 // indirect
	github.com/google/pprof v0.0.0-20211214055906-6f57359322fd // indirect
	github.com/grpc-ecosystem/grpc-gateway/v2 v2.16.0 // indirect
	github.com/hashicorp/hcl v1.0.0 // indirect
	github.com/jinzhu/inflection v1.0.0 // indirect
	github.com/jinzhu/now v1.1.5 // indirect
	github.com/josharian/intern v1.0.0 // indirect
	github.com/klauspost/compress v1.15.11 // indirect
	github.com/konsorten/go-windows-terminal-sequences v1.0.3 // indirect
	github.com/leodido/go-urn v1.4.0 // indirect
	github.com/magiconair/properties v1.8.7 // indirect
	github.com/mailru/easyjson v0.7.6 // indirect
	github.com/mattn/go-colorable v0.1.13 // indirect
	github.com/mattn/go-isatty v0.0.20 // indirect
	github.com/matttproud/golang_protobuf_extensions v1.0.4 // indirect
	github.com/montanaflynn/stats v0.0.0-20171201202039-1bf9dbcd8cbe // indirect
	github.com/pelletier/go-toml/v2 v2.0.8 // indirect
	github.com/pmezard/go-difflib v1.0.0 // indirect
	github.com/prometheus/client_model v0.3.0 // indirect
	github.com/prometheus/common v0.37.0 // indirect
	github.com/prometheus/procfs v0.10.1 // indirect
	github.com/spf13/afero v1.9.5 // indirect
	github.com/spf13/cast v1.5.1 // indirect
	github.com/spf13/jwalterweatherman v1.1.0 // indirect
	github.com/spf13/pflag v1.0.5 // indirect
	github.com/subosito/gotenv v1.4.2 // indirect
	github.com/swaggo/files/v2 v2.0.0 // indirect
	github.com/toorop/go-dkim v0.0.0-20201103131630-e1cd1a0a5208 // indirect
	github.com/xdg-go/pbkdf2 v1.0.0 // indirect
	github.com/xdg-go/scram v1.1.1 // indirect
	github.com/xdg-go/stringprep v1.0.3 // indirect
	github.com/youmark/pkcs8 v0.0.0-20181117223130-1be2e3e5546d // indirect
	go.opentelemetry.io/otel/metric v1.18.0 // indirect
	go.opentelemetry.io/proto/otlp v1.0.0 // indirect
	golang.org/x/mod v0.16.0 // indirect
	golang.org/x/net v0.22.0 // indirect
	golang.org/x/sync v0.6.0 // indirect
	golang.org/x/sys v0.18.0 // indirect
	golang.org/x/text v0.14.0 // indirect
	golang.org/x/tools v0.19.0 // indirect
	google.golang.org/genproto/googleapis/api v0.0.0-20230711160842-782d3b101e98 // indirect
	google.golang.org/genproto/googleapis/rpc v0.0.0-20230711160842-782d3b101e98 // indirect
	gopkg.in/ini.v1 v1.67.0 // indirect
	gopkg.in/yaml.v2 v2.4.0 // indirect
	gopkg.in/yaml.v3 v3.0.1 // indirect
	gorm.io/datatypes v1.2.0 // indirect
	gorm.io/hints v1.1.2 // indirect
)
